EXT_01,Pass,BOOL,,
EXT_02,Time,INT,0,1000
EXT_03,Vision System Healty,BOOL,,
EXT_04,Not Used,BOOL,,
EXT_05,Not Used,BOOL,,
EXT_06,Test Var,BOOL,,
EXT_07,Test Var 2,INT,0,100
EXT_08,Test Var 3,BOOL,,
EXT_09,Test Var 4,INT,0,100
EXT_10,Test Var 5,BOOL,,
EXT_11,Test Var 6,INT,0,500
EXT_12,Test Var 7,BOOL,,
EXT_13,Test Var 8,INT,0,250
EXT_14,Test Var 9,BOOL,,
EXT_15,Test Var 10,INT,0,100
